diff -urNp winpcap/packetNtx/Dll/AdInfo.c winpcap.new/packetNtx/Dll/AdInfo.c
--- winpcap/packetNtx/Dll/AdInfo.c	2008-11-18 23:16:24.000000000 +0200
+++ winpcap.new/packetNtx/Dll/AdInfo.c	2010-09-14 17:56:05.140370022 +0200
@@ -53,7 +53,7 @@
 //
 #define _CRT_SECURE_NO_DEPRECATE
 
-#include <packet32.h>
+#include <Packet32.h>
 #include "Packet32-Int.h"
 #include "debug.h"
 
@@ -63,7 +63,7 @@
 
 #include <windows.h>
 #include <windowsx.h>
-#include <Iphlpapi.h>
+#include <iphlpapi.h>
 #include <strsafe.h>
 #include <WpcapNames.h>
 
diff -urNp winpcap/packetNtx/Dll/Packet32.c winpcap.new/packetNtx/Dll/Packet32.c
--- winpcap/packetNtx/Dll/Packet32.c	2008-11-18 12:17:42.000000000 +0200
+++ winpcap.new/packetNtx/Dll/Packet32.c	2010-09-14 17:56:05.140370022 +0200
@@ -44,11 +44,11 @@
 //
 #define _CRT_SECURE_NO_WARNINGS
 
-#include <packet32.h>
-#include <StrSafe.h>
+#include <Packet32.h>
+#include <strsafe.h>
 
 #include "Packet32-Int.h"
-#include "..\driver\ioctls.h"
+#include "../driver/ioctls.h"
 
 #ifdef HAVE_WANPACKET_API
 #include "wanpacket/wanpacket.h"
@@ -98,8 +98,8 @@ CHAR g_LogFileName[1024] = "winpcap_debu
 
 #include <windows.h>
 #include <windowsx.h>
-#include <Iphlpapi.h>
-#include <IPIfCons.h>
+#include <iphlpapi.h>
+#include <ipifcons.h>
 
 #include <WpcapNames.h>
 
diff -urNp winpcap/packetNtx/Dll/Packet32-Int.h winpcap.new/packetNtx/Dll/Packet32-Int.h
--- winpcap/packetNtx/Dll/Packet32-Int.h	2008-11-18 12:17:42.000000000 +0200
+++ winpcap.new/packetNtx/Dll/Packet32-Int.h	2010-09-14 17:56:25.155401879 +0200
@@ -42,14 +42,10 @@
 #include "NpfImExt.h"
 #endif //HAVE_NPFIM_API
 
-#ifdef __MINGW32__
-#include <ddk/ntddndis.h>
-#else
 #pragma warning( push )
 #pragma warning( disable : 4201 )
 #include <ntddndis.h>
 #pragma warning( pop )
-#endif //__MINGW32__
 
 /*!
   \brief Linked list item containing one of the IP addresses associated with an adapter.
diff -urNp winpcap/packetNtx/Dll/Project/GNUmakefile winpcap.new/packetNtx/Dll/Project/GNUmakefile
--- winpcap/packetNtx/Dll/Project/GNUmakefile	2006-11-16 18:29:18.000000000 +0200
+++ winpcap.new/packetNtx/Dll/Project/GNUmakefile	2010-09-14 17:56:05.141370054 +0200
@@ -5,7 +5,7 @@
 OPTFLAGS = -O -D_WINNT4
 # I am suspicious of -O2 since it hosed wpcap.dll. To be safe, use -O only
 
-CFLAGS = -I ../../../common -shared -mno-cygwin ${OPTFLAGS} -I..
+CFLAGS = -I ../../../Common -shared -mno-cygwin ${OPTFLAGS} -I..
 LDFLAGS = -Wl,--out-implib,libpacket.a
 OBJS = ../Packet32.o ../AdInfo.o
 LIBS = -lws2_32 -lversion
diff -urNp winpcap/wpcap/libpcap/gencode.c winpcap.new/wpcap/libpcap/gencode.c
--- winpcap/wpcap/libpcap/gencode.c	2010-06-25 09:44:24.000000000 +0300
+++ winpcap.new/wpcap/libpcap/gencode.c	2010-09-14 17:56:05.142370082 +0200
@@ -39,7 +39,7 @@ static const char rcsid[] _U_ =
  * XXX - why was this included even on UNIX?
  */
 #ifdef __MINGW32__
-#include "IP6_misc.h"
+#include "ip6_misc.h"
 #endif
 
 #ifndef WIN32
diff -urNp winpcap/wpcap/libpcap/grammar.y winpcap.new/wpcap/libpcap/grammar.y
--- winpcap/wpcap/libpcap/grammar.y	2009-10-07 01:20:04.000000000 +0200
+++ winpcap.new/wpcap/libpcap/grammar.y	2010-09-14 17:56:05.142370082 +0200
@@ -170,7 +170,7 @@ yyerror(const char *msg)
 int yyparse(void);
 
 int
-pcap_parse()
+pcap_parse_me()
 {
 	return (yyparse());
 }
diff -urNp winpcap/wpcap/libpcap/inet.c winpcap.new/wpcap/libpcap/inet.c
--- winpcap/wpcap/libpcap/inet.c	2009-10-07 01:20:04.000000000 +0200
+++ winpcap.new/wpcap/libpcap/inet.c	2010-09-14 17:56:05.142370082 +0200
@@ -804,7 +804,7 @@ pcap_lookupdev(errbuf)
 		while(NAdapts--)
 		{
 			strcpy((char*)tUstr, tAstr);
-			(char*)tUstr += strlen(tAstr) + 1;;
+			tUstr = ((char *)tUstr) + strlen(tAstr) + 1;
 			tAstr += strlen(tAstr) + 1;
 		}
 
diff -urNp winpcap/wpcap/libpcap/nametoaddr.c winpcap.new/wpcap/libpcap/nametoaddr.c
--- winpcap/wpcap/libpcap/nametoaddr.c	2009-10-07 01:20:04.000000000 +0200
+++ winpcap.new/wpcap/libpcap/nametoaddr.c	2010-09-14 17:56:05.143370106 +0200
@@ -48,7 +48,7 @@ static const char rcsid[] _U_ =
  * XXX - why was this included even on UNIX?
  */
 #ifdef __MINGW32__
-#include "IP6_misc.h"
+#include "ip6_misc.h"
 #endif
 
 #ifndef WIN32
diff -urNp winpcap/wpcap/libpcap/pcap-win32.c winpcap.new/wpcap/libpcap/pcap-win32.c
--- winpcap/wpcap/libpcap/pcap-win32.c	2010-06-25 09:44:24.000000000 +0300
+++ winpcap.new/wpcap/libpcap/pcap-win32.c	2010-09-14 17:57:01.832459353 +0200
@@ -38,11 +38,7 @@ static const char rcsid[] _U_ =
 
 #include <pcap-int.h>
 #include <Packet32.h>
-#ifdef __MINGW32__
-#include <ddk/ndis.h>
-#else /*__MINGW32__*/
 #include <ntddndis.h>
-#endif /*__MINGW32__*/
 #ifdef HAVE_DAG_API
 #include <dagnew.h>
 #include <dagapi.h>
diff -urNp winpcap/wpcap/libpcap/scanner.l winpcap.new/wpcap/libpcap/scanner.l
--- winpcap/wpcap/libpcap/scanner.l	2009-10-07 01:20:04.000000000 +0200
+++ winpcap.new/wpcap/libpcap/scanner.l	2010-09-14 17:56:05.143370106 +0200
@@ -40,7 +40,7 @@ static const char rcsid[] _U_ =
 #include <pcap-stdinc.h>
 
 #ifdef __MINGW32__
-#include "IP6_misc.h"
+#include "ip6_misc.h"
 #endif
 #else /* WIN32 */
 #include <sys/socket.h>	/* for "struct sockaddr" in "struct addrinfo" */
diff -urNp winpcap/wpcap/libpcap/Win32/Src/getaddrinfo.c winpcap.new/wpcap/libpcap/Win32/Src/getaddrinfo.c
--- winpcap/wpcap/libpcap/Win32/Src/getaddrinfo.c	2009-10-07 01:19:58.000000000 +0200
+++ winpcap.new/wpcap/libpcap/Win32/Src/getaddrinfo.c	2010-09-14 17:56:05.143370106 +0200
@@ -85,7 +85,7 @@ static const char rcsid[] _U_ =
 #ifdef NEED_ADDRINFO_H
 #include "addrinfo.h"
 #ifdef WIN32
-#include "IP6_misc.h"
+#include "ip6_misc.h"
 #endif
 #endif
 
diff -urNp winpcap/wpcap/PRJ/GNUmakefile winpcap.new/wpcap/PRJ/GNUmakefile
--- winpcap/wpcap/PRJ/GNUmakefile	2009-07-24 08:03:00.000000000 +0300
+++ winpcap.new/wpcap/PRJ/GNUmakefile	2010-09-14 17:56:05.143370106 +0200
@@ -15,26 +15,26 @@ OPTFLAGS = -O
 # and link against libpcap.  If you don't have flex or bison, get them.
 #
 LFLAGS = -Ppcap_
-YFLAGS = -y -p pcap_
+YFLAGS = -p pcap_
 
-PACKET_DIR = packetNTx
+PACKET_DIR = packetNtx
 INSTALL_DIR = ${SYSTEMROOT}\system32
 
 CFLAGS = -I ../libpcap -I ../libpcap/bpf -I ../libpcap/lbl \
 	-I ../libpcap/Win32/Include -I../libpcap/Win32/Include/ipv6kit \
-	-I ../../common -I ../Win32-Extensions \
+	-I ../../Common -I ../Win32-Extensions \
 	-I ../../../Airpcap_DevPack/include \
 	-DLIBPCAP_EXPORTS -DYY_NEVER_INTERACTIVE -Dyylval=pcap_lval \
 	-DHAVE_STRERROR -DNEED_ADDRINFO_H -DINET6 -DWIN32 \
 	-DSIZEOF_CHAR=1 -DSIZEOF_SHORT=2 -DSIZEOF_INT=4 -DSIZEOF_LONG_LONG=8 -DWPCAP -D'_U_=' \
 	-DHAVE_SNPRINTF -DHAVE_VSNPRINTF \
 	-DSIZEOF_LONG_LONG=8 \
 	-DHAVE_REMOTE -DHAVE_AIRPCAP_API \
 	-DHAVE_TC_API \
 	-DHAVE_ADDRINFO \
 	-mno-cygwin -shared ${OPTFLAGS}
-LDFLAGS = -Wl,--out-implib,../lib/libwpcap.a
-LIBS = -L ../../${PACKET_DIR}/DLL/Project -lPacket -lws2_32
+LDFLAGS = -Wl,--allow-multiple-definition -Wl,--out-implib,../lib/libwpcap.a
+LIBS = -L ../../${PACKET_DIR}/Dll/Project -lpacket -lws2_32
 OBJS = ../libpcap/bpf/net/bpf_filter.o \
 	../libpcap/bpf_dump.o \
 	../libpcap/bpf_image.o \
@@ -45,7 +45,7 @@ OBJS = ../libpcap/bpf/net/bpf_filter.o \
 	../libpcap/Win32/Src/getnetent.o \
 	../libpcap/Win32/Src/getservent.o \
 	../libpcap/grammar.o \
-  ../libpcap/Win32/Src/getaddrinfo.o \
+	../libpcap/Win32/Src/getaddrinfo.o \
 	../libpcap/inet.o \
 	../libpcap/Win32/Src/inet_aton.o \
 	../libpcap/Win32/Src/inet_net.o \
@@ -67,7 +67,7 @@ OBJS = ../libpcap/bpf/net/bpf_filter.o \
 main: ${OBJS}
 	@${RM} -rf ../lib/
 	mkdir ../lib/
-	${CC} ${CFLAGS} ${LDFLAGS} -o wpcap.dll wpcap.def ${OBJS} ${LIBS}
+	${CC} ${CFLAGS} ${LDFLAGS} -o wpcap.dll WPCAP.DEF ${OBJS} ${LIBS}
 
 install:
 	cp wpcap.dll ${INSTALL_DIR}
diff -urNp winpcap/wpcap/Win32-Extensions/Win32-Extensions.c winpcap.new/wpcap/Win32-Extensions/Win32-Extensions.c
--- winpcap/wpcap/Win32-Extensions/Win32-Extensions.c	2008-05-20 13:25:00.000000000 +0300
+++ winpcap.new/wpcap/Win32-Extensions/Win32-Extensions.c	2010-09-14 17:56:05.144370129 +0200
@@ -33,7 +33,7 @@
 
 
 #include "pcap-int.h"
-#include <packet32.h>
+#include <Packet32.h>
 
 #ifdef HAVE_REMOTE
 #include <pcap-remote.h>