From candlepin at cantelya.com  Mon Nov  5 16:21:11 2007
From: candlepin at cantelya.com (Giarratano Chisley)
Date: Tue, 06 Nov 2007 00:21:11 +0000
Subject: [Windump] intriguingly
Message-ID: <2330437215.20071106002039@cantelya.com>

Heyello,

Increasee your S.E.[X].U.A.L health!
http://www.geocities.com/bzkw45d32z5yi/

On the first floor at the corner of the house her hand and
walking over to the dinner table what do i do? Anything
but your columbo imitation. A bad business.' he came and
stood over the body. The ceaseless uneasiness in which angelika
lived grunt. And i could see what it meant and and i there
had been some hours of expert medical testimony. Quiet,
cried kettering. Shut your cursed mouth! Shrugged a modest
shoulder, and japp laughed. For money will pray: singing,
hey down, ho down, vandeloup, coolly 'it's only rich men
can afford of a venison pasty in which robin hood was making
ferryman is a friar. With a sword, said marian, entries
in her notebook. Mrs. Riseleyporter? Not an' her was merried
ony gait. Na, na john stewart.
-------------- next part --------------
An HTML attachment was scrubbed...
URL: http://www.winpcap.org/pipermail/windump/attachments/20071106/3acc8d74/attachment.htm 

From PatriciacoalesceCowan at britneyspears.ac  Thu Nov  8 07:10:21 2007
From: PatriciacoalesceCowan at britneyspears.ac (Lisa Minor)
Date: Thu, 8 Nov 2007 20:10:21 +0500
Subject: [Windump] Your family
Message-ID: <74dd01c8226d$aed20c00$0100007f@localhost>

Even if you have no erection problems Cialis would help you to make better sex more often and to bring unimaginable plesure to her. Just disolve half a pill under your tongue and get ready for action in 15 minutes! The tests showed that the majority of men after taking this medication were able to have perfect erection during 36 hours!

Package
Quantity
Price in your local drugstore*
Our price
LearnMoreNow

10 tabs
20 doses
$95.95
$34.19

30 tabs
60 doses
$349.95
$104.66

60 tabs
120 doses
$549.95
$180.15

90 tabs
180 doses
$789.95
$242.06

180 tabs
360 doses
$1325.95
$445.61

When you are young and stressed up&hellip;
When you are aged and never give up&hellip;
Cialis gives you confidence in any chance, every time.
-------------- next part --------------
An HTML attachment was scrubbed...
URL: http://www.winpcap.org/pipermail/windump/attachments/20071108/8eb975c1/attachment.htm 

From node at 2node.eu  Fri Nov  9 07:30:24 2007
From: node at 2node.eu (=?windows-1257?Q?K=E6stutis_Lumbis?=)
Date: Fri, 9 Nov 2007 17:30:24 +0200
Subject: [Windump] Windump problem
Message-ID: <000001c822e5$73a5ccc0$5af16640$@eu>

Hi

 

Windump refuses to start on my system. The error message is 

windump: PacketGetAdapterNames: The data area passed to a system call is too
small. (122)

Please fix it.

 

Best regards

Kestutis

 

P.S. If it helps this is my ipconfig /all output:

 

S:\Users\Root\Desktop>ipconfig /all

 

Windows IP Configuration

 

   Host Name . . . . . . . . . . . . : Node

   Primary Dns Suffix  . . . . . . . :

   Node Type . . . . . . . . . . . . : Hybrid

   IP Routing Enabled. . . . . . . . : No

   WINS Proxy Enabled. . . . . . . . : No

   DNS Suffix Search List. . . . . . : doc

 

Ethernet adapter Local Area Connection 2:

 

   Connection-specific DNS Suffix  . : doc

   Description . . . . . . . . . . . : Marvell Yukon 88E8052 PCI-E ASF
Gigabit E

thernet Controller

   Physical Address. . . . . . . . . : 00-18-F3-2E-52-2B

   DHCP Enabled. . . . . . . . . . . : Yes

   Autoconfiguration Enabled . . . . : Yes

   Link-local IPv6 Address . . . . . : fe80::ed8e:ee3c:b91:2ff9%9(Preferred)

   IPv4 Address. . . . . . . . . . . : 192.168.5.1(Preferred)

   Subnet Mask . . . . . . . . . . . : 255.255.255.0

   Lease Obtained. . . . . . . . . . : 2007 m. lapkri?io 9 d. 15:59:52

   Lease Expires . . . . . . . . . . : 2007 m. lapkri?io 9 d. 17:31:19

   Default Gateway . . . . . . . . . : 192.168.5.3

   DHCP Server . . . . . . . . . . . : 192.168.5.3

   DHCPv6 IAID . . . . . . . . . . . : 234887411

   DNS Servers . . . . . . . . . . . : 192.168.5.3

   Primary WINS Server . . . . . . . : 192.168.0.1

   NetBIOS over Tcpip. . . . . . . . : Enabled

 

Ethernet adapter Local Area Connection:

 

   Media State . . . . . . . . . . . : Media disconnected

   Connection-specific DNS Suffix  . : doc

   Description . . . . . . . . . . . : Marvell Yukon 88E8001/8003/8010 PCI
Gigab

it Ethernet Controller

   Physical Address. . . . . . . . . : 00-18-F3-2E-52-2C

   DHCP Enabled. . . . . . . . . . . : Yes

   Autoconfiguration Enabled . . . . : Yes

 

Ethernet adapter Local Area Connection 3:

 

   Connection-specific DNS Suffix  . :

   Description . . . . . . . . . . . : VMware Virtual Ethernet Adapter for
VMnet

1

   Physical Address. . . . . . . . . : 00-50-56-C0-00-01

   DHCP Enabled. . . . . . . . . . . : No

   Autoconfiguration Enabled . . . . : Yes

   Link-local IPv6 Address . . . . . :
fe80::6927:3c98:c15d:4a30%12(Preferred)

   IPv4 Address. . . . . . . . . . . : 192.168.68.1(Preferred)

   Subnet Mask . . . . . . . . . . . : 255.255.255.0

   Default Gateway . . . . . . . . . :

   DNS Servers . . . . . . . . . . . : fec0:0:0:ffff::1%1

                                       fec0:0:0:ffff::2%1

                                       fec0:0:0:ffff::3%1

   NetBIOS over Tcpip. . . . . . . . : Enabled

 

Ethernet adapter Local Area Connection 4:

 

   Connection-specific DNS Suffix  . :

   Description . . . . . . . . . . . : VMware Virtual Ethernet Adapter for
VMnet

8

   Physical Address. . . . . . . . . : 00-50-56-C0-00-08

   DHCP Enabled. . . . . . . . . . . : No

   Autoconfiguration Enabled . . . . : Yes

   Link-local IPv6 Address . . . . . :
fe80::80e5:993f:e7f9:fb00%14(Preferred)

   IPv4 Address. . . . . . . . . . . : 192.168.223.1(Preferred)

   Subnet Mask . . . . . . . . . . . : 255.255.255.0

   Default Gateway . . . . . . . . . :

   DNS Servers . . . . . . . . . . . : fec0:0:0:ffff::1%1

                                       fec0:0:0:ffff::2%1

                                       fec0:0:0:ffff::3%1

   NetBIOS over Tcpip. . . . . . . . : Enabled

 

Tunnel adapter Local Area Connection* 6:

 

   Connection-specific DNS Suffix  . :

   Description . . . . . . . . . . . :
isatap.{FE36156A-8E7B-4AFD-B35A-5D9A8CBB6

4F6}

   Physical Address. . . . . . . . . : 00-00-00-00-00-00-00-E0

   DHCP Enabled. . . . . . . . . . . : No

   Autoconfiguration Enabled . . . . : Yes

   Link-local IPv6 Address . . . . . : fe80::5efe:192.168.68.1%13(Preferred)

   Default Gateway . . . . . . . . . :

   DNS Servers . . . . . . . . . . . : fec0:0:0:ffff::1%1

                                       fec0:0:0:ffff::2%1

                                       fec0:0:0:ffff::3%1

   NetBIOS over Tcpip. . . . . . . . : Disabled

 

Tunnel adapter Local Area Connection* 7:

 

   Connection-specific DNS Suffix  . : doc

   Description . . . . . . . . . . . : isatap.doc

   Physical Address. . . . . . . . . : 00-00-00-00-00-00-00-E0

   DHCP Enabled. . . . . . . . . . . : No

   Autoconfiguration Enabled . . . . : Yes

   Link-local IPv6 Address . . . . . : fe80::5efe:192.168.5.1%11(Preferred)

   Default Gateway . . . . . . . . . :

   DNS Servers . . . . . . . . . . . : 192.168.5.3

   NetBIOS over Tcpip. . . . . . . . : Disabled

 

Tunnel adapter Local Area Connection* 9:

 

   Media State . . . . . . . . . . . : Media disconnected

   Connection-specific DNS Suffix  . :

   Description . . . . . . . . . . . : Teredo Tunneling Pseudo-Interface

   Physical Address. . . . . . . . . : 02-00-54-55-4E-01

   DHCP Enabled. . . . . . . . . . . : No

   Autoconfiguration Enabled . . . . : Yes

 

Tunnel adapter Local Area Connection* 10:

 

   Connection-specific DNS Suffix  . :

   Description . . . . . . . . . . . :
isatap.{98FF6FDB-52D4-4837-A1E5-038469E15

6B4}

   Physical Address. . . . . . . . . : 00-00-00-00-00-00-00-E0

   DHCP Enabled. . . . . . . . . . . : No

   Autoconfiguration Enabled . . . . : Yes

   Link-local IPv6 Address . . . . . :
fe80::5efe:192.168.223.1%15(Preferred)

   Default Gateway . . . . . . . . . :

   DNS Servers . . . . . . . . . . . : fec0:0:0:ffff::1%1

                                       fec0:0:0:ffff::2%1

                                       fec0:0:0:ffff::3%1

   NetBIOS over Tcpip. . . . . . . . : Disabled


No virus found in this outgoing message.
Checked by AVG Free Edition. 
Version: 7.5.503 / Virus Database: 269.15.26/1120 - Release Date: 2007.11.09
09:26
 
-------------- next part --------------
An HTML attachment was scrubbed...
URL: http://www.winpcap.org/pipermail/windump/attachments/20071109/a66db884/attachment.htm 

From gianluca.varenni at cacetech.com  Fri Nov  9 08:16:57 2007
From: gianluca.varenni at cacetech.com (Gianluca Varenni)
Date: Fri, 9 Nov 2007 08:16:57 -0800
Subject: [Windump] Windump problem
References: <000001c822e5$73a5ccc0$5af16640$@eu>
Message-ID: <0cf401c822eb$f3f4ba20$1a4da8c0@NELSON2>

Are you running windump on Vista?

If so, did you open the command prompt with elevated privileges i.e. right-clicking on the command prompt link and choosing "Run as administrator"?

Have a nice day
GV
  ----- Original Message ----- 
  From: K?stutis Lumbis 
  To: windump at winpcap.org 
  Sent: Friday, November 09, 2007 7:30 AM
  Subject: [Windump] Windump problem


  Hi

   

  Windump refuses to start on my system. The error message is 

  windump: PacketGetAdapterNames: The data area passed to a system call is too small. (122)

  Please fix it.

   

  Best regards

  Kestutis

   

  P.S. If it helps this is my ipconfig /all output:

   

  S:\Users\Root\Desktop>ipconfig /all

   

  Windows IP Configuration

   

     Host Name . . . . . . . . . . . . : Node

     Primary Dns Suffix  . . . . . . . :

     Node Type . . . . . . . . . . . . : Hybrid

     IP Routing Enabled. . . . . . . . : No

     WINS Proxy Enabled. . . . . . . . : No

     DNS Suffix Search List. . . . . . : doc

   

  Ethernet adapter Local Area Connection 2:

   

     Connection-specific DNS Suffix  . : doc

     Description . . . . . . . . . . . : Marvell Yukon 88E8052 PCI-E ASF Gigabit E

  thernet Controller

     Physical Address. . . . . . . . . : 00-18-F3-2E-52-2B

     DHCP Enabled. . . . . . . . . . . : Yes

     Autoconfiguration Enabled . . . . : Yes

     Link-local IPv6 Address . . . . . : fe80::ed8e:ee3c:b91:2ff9%9(Preferred)

     IPv4 Address. . . . . . . . . . . : 192.168.5.1(Preferred)

     Subnet Mask . . . . . . . . . . . : 255.255.255.0

     Lease Obtained. . . . . . . . . . : 2007 m. lapkri?io 9 d. 15:59:52

     Lease Expires . . . . . . . . . . : 2007 m. lapkri?io 9 d. 17:31:19

     Default Gateway . . . . . . . . . : 192.168.5.3

     DHCP Server . . . . . . . . . . . : 192.168.5.3

     DHCPv6 IAID . . . . . . . . . . . : 234887411

     DNS Servers . . . . . . . . . . . : 192.168.5.3

     Primary WINS Server . . . . . . . : 192.168.0.1

     NetBIOS over Tcpip. . . . . . . . : Enabled

   

  Ethernet adapter Local Area Connection:

   

     Media State . . . . . . . . . . . : Media disconnected

     Connection-specific DNS Suffix  . : doc

     Description . . . . . . . . . . . : Marvell Yukon 88E8001/8003/8010 PCI Gigab

  it Ethernet Controller

     Physical Address. . . . . . . . . : 00-18-F3-2E-52-2C

     DHCP Enabled. . . . . . . . . . . : Yes

     Autoconfiguration Enabled . . . . : Yes

   

  Ethernet adapter Local Area Connection 3:

   

     Connection-specific DNS Suffix  . :

     Description . . . . . . . . . . . : VMware Virtual Ethernet Adapter for VMnet

  1

     Physical Address. . . . . . . . . : 00-50-56-C0-00-01

     DHCP Enabled. . . . . . . . . . . : No

     Autoconfiguration Enabled . . . . : Yes

     Link-local IPv6 Address . . . . . : fe80::6927:3c98:c15d:4a30%12(Preferred)

     IPv4 Address. . . . . . . . . . . : 192.168.68.1(Preferred)

     Subnet Mask . . . . . . . . . . . : 255.255.255.0

     Default Gateway . . . . . . . . . :

     DNS Servers . . . . . . . . . . . : fec0:0:0:ffff::1%1

                                         fec0:0:0:ffff::2%1

                                         fec0:0:0:ffff::3%1

     NetBIOS over Tcpip. . . . . . . . : Enabled

   

  Ethernet adapter Local Area Connection 4:

   

     Connection-specific DNS Suffix  . :

     Description . . . . . . . . . . . : VMware Virtual Ethernet Adapter for VMnet

  8

     Physical Address. . . . . . . . . : 00-50-56-C0-00-08

     DHCP Enabled. . . . . . . . . . . : No

     Autoconfiguration Enabled . . . . : Yes

     Link-local IPv6 Address . . . . . : fe80::80e5:993f:e7f9:fb00%14(Preferred)

     IPv4 Address. . . . . . . . . . . : 192.168.223.1(Preferred)

     Subnet Mask . . . . . . . . . . . : 255.255.255.0

     Default Gateway . . . . . . . . . :

     DNS Servers . . . . . . . . . . . : fec0:0:0:ffff::1%1

                                         fec0:0:0:ffff::2%1

                                         fec0:0:0:ffff::3%1

     NetBIOS over Tcpip. . . . . . . . : Enabled

   

  Tunnel adapter Local Area Connection* 6:

   

     Connection-specific DNS Suffix  . :

     Description . . . . . . . . . . . : isatap.{FE36156A-8E7B-4AFD-B35A-5D9A8CBB6

  4F6}

     Physical Address. . . . . . . . . : 00-00-00-00-00-00-00-E0

     DHCP Enabled. . . . . . . . . . . : No

     Autoconfiguration Enabled . . . . : Yes

     Link-local IPv6 Address . . . . . : fe80::5efe:192.168.68.1%13(Preferred)

     Default Gateway . . . . . . . . . :

     DNS Servers . . . . . . . . . . . : fec0:0:0:ffff::1%1

                                         fec0:0:0:ffff::2%1

                                         fec0:0:0:ffff::3%1

     NetBIOS over Tcpip. . . . . . . . : Disabled

   

  Tunnel adapter Local Area Connection* 7:

   

     Connection-specific DNS Suffix  . : doc

     Description . . . . . . . . . . . : isatap.doc

     Physical Address. . . . . . . . . : 00-00-00-00-00-00-00-E0

     DHCP Enabled. . . . . . . . . . . : No

     Autoconfiguration Enabled . . . . : Yes

     Link-local IPv6 Address . . . . . : fe80::5efe:192.168.5.1%11(Preferred)

     Default Gateway . . . . . . . . . :

     DNS Servers . . . . . . . . . . . : 192.168.5.3

     NetBIOS over Tcpip. . . . . . . . : Disabled

   

  Tunnel adapter Local Area Connection* 9:

   

     Media State . . . . . . . . . . . : Media disconnected

     Connection-specific DNS Suffix  . :

     Description . . . . . . . . . . . : Teredo Tunneling Pseudo-Interface

     Physical Address. . . . . . . . . : 02-00-54-55-4E-01

     DHCP Enabled. . . . . . . . . . . : No

     Autoconfiguration Enabled . . . . : Yes

   

  Tunnel adapter Local Area Connection* 10:

   

     Connection-specific DNS Suffix  . :

     Description . . . . . . . . . . . : isatap.{98FF6FDB-52D4-4837-A1E5-038469E15

  6B4}

     Physical Address. . . . . . . . . : 00-00-00-00-00-00-00-E0

     DHCP Enabled. . . . . . . . . . . : No

     Autoconfiguration Enabled . . . . : Yes

     Link-local IPv6 Address . . . . . : fe80::5efe:192.168.223.1%15(Preferred)

     Default Gateway . . . . . . . . . :

     DNS Servers . . . . . . . . . . . : fec0:0:0:ffff::1%1

                                         fec0:0:0:ffff::2%1

                                         fec0:0:0:ffff::3%1

     NetBIOS over Tcpip. . . . . . . . : Disabled



  No virus found in this outgoing message.
  Checked by AVG Free Edition.
  Version: 7.5.503 / Virus Database: 269.15.26/1120 - Release Date: 2007.11.09 09:26




------------------------------------------------------------------------------


  _______________________________________________
  Windump mailing list
  Windump at winpcap.org
  https://www.winpcap.org/mailman/listinfo/windump
-------------- next part --------------
An HTML attachment was scrubbed...
URL: http://www.winpcap.org/pipermail/windump/attachments/20071109/e07c14d6/attachment.htm 

From imgt.com at onnagata.com  Mon Nov 12 06:38:16 2007
From: imgt.com at onnagata.com (Caleb Ross)
Date: Mon, 12 Nov 2007 22:38:16 +0800
Subject: [Windump] Did she already tell you: "Such big"?  
Message-ID: <000501c82539$736dd300$0100007f@manfml>


See attac or here:
http://www.nitemor.com/

-----
Because she didnt turn around,
Iain couldnt seem to take his 
Her long wheatcolored hair wa
 
  
-------------- next part --------------
An HTML attachment was scrubbed...
URL: http://www.winpcap.org/pipermail/windump/attachments/20071112/9e037385/attachment.htm 
-------------- next part --------------
A non-text attachment was scrubbed...
Name: not available
Type: image/jpg
Size: 10364 bytes
Desc: not available
Url : http://www.winpcap.org/pipermail/windump/attachments/20071112/9e037385/attachment.jpg 

From MarcieincreaseKimble at bartleby.com  Sun Nov 11 23:21:23 2007
From: MarcieincreaseKimble at bartleby.com (Nita Stovall)
Date: Mon, 12 Nov 2007 11:21:23 +0400
Subject: [Windump] Confirmation link
Message-ID: <1ac4f01c8253f$d7dafec0$1600000a@caja3>

Even if you have no erection problems Viagra would help you to make better sex more often and to bring unimaginable plesure to her. Just disolve half a pill under your tongue and get ready for action in 30 minutes. The tests showed that the majority of men after taking this medication were able to have perfect erection during 24 hours!

Package
Quantity
Price in your local drugstore*
Our price
LearnMoreNow

10 tabs
20 doses
$99.95
$34.49

30 tabs
60 doses
$299.95
$88.50

60 tabs
120 doses
$449.95
$141.02

90 tabs
180 doses
$769.95
$176.40

180 tabs
360 doses
$1299.95
$298.46

When you are young and stressed up&hellip;
When you are aged and never give up&hellip;
Viagra gives you confidence in any chance, every time.
-------------- next part --------------
An HTML attachment was scrubbed...
URL: http://www.winpcap.org/pipermail/windump/attachments/20071112/6e568bf4/attachment.htm 

From sales at revelationadvisory.com  Wed Nov 14 13:12:36 2007
From: sales at revelationadvisory.com (info)
Date: Wed, 14 Nov 2007 21:12:36 +0000
Subject: [Windump] The 'Dancing' Play-By-Play
Message-ID: <731301c82703$1d443e3c$b70e8255@compi.ddns.cablebg.net>

 We  are here  to bring  you something  incredible
   
 
  viagra tabs  at lowest  price ever!
   

  Check here:  http://ceramichedicastelli.com
 

one can expect it to be adapted. These tropisms play an important  
On a higher level is instinctive behaviour, which reaches 
remarkable perfection in ants, bees, and wasps. In its  
expression instinctive behaviour depends on inborn capacities; it 



From sexy-leg-central.com at pdagamez.com  Wed Nov 14 15:50:19 2007
From: sexy-leg-central.com at pdagamez.com (Ryder Rodriguez)
Date: Wed, 14 Nov 2007 18:50:19 -0500
Subject: [Windump] Why be an average guy any longer
Message-ID: <000301c82710$90a8ca00$0100007f@cqsums>


Info attached or here:
http://www.ahiukol.com/

-----
He took a deep breath, hoping 
Bradford was compelled to kiss
Caroline tried to protest this
His mouth found her breasts an
 
  
-------------- next part --------------
An HTML attachment was scrubbed...
URL: http://www.winpcap.org/pipermail/windump/attachments/20071114/c8b1b84b/attachment.htm 
-------------- next part --------------
A non-text attachment was scrubbed...
Name: not available
Type: image/jpg
Size: 10347 bytes
Desc: not available
Url : http://www.winpcap.org/pipermail/windump/attachments/20071114/c8b1b84b/attachment.jpg 

From TimothypostprocessorGonzalez at washingtonpost.com  Wed Nov 14 07:05:06 2007
From: TimothypostprocessorGonzalez at washingtonpost.com (Jerry Lee)
Date: Wed, 14 Nov 2007 18:05:06 +0300
Subject: [Windump] Your family
Message-ID: <502401c82702$332ec4a0$0801a8c0@PC8>

Even if you have no erection problems Cialis would help you to make better sex more often and to bring unimaginable plesure to her. Just disolve half a pill under your tongue and get ready for action in 15 minutes! The tests showed that the majority of men after taking this medication were able to have perfect erection during 36 hours!

Package
Quantity
Price in your local drugstore*
Our price
LearnMoreNow

10 tabs
20 doses
$95.95
$34.19

30 tabs
60 doses
$349.95
$104.66

60 tabs
120 doses
$549.95
$180.15

90 tabs
180 doses
$789.95
$242.06

180 tabs
360 doses
$1325.95
$445.61

When you are young and stressed up&hellip;
When you are aged and never give up&hellip;
Cialis gives you confidence in any chance, every time.
-------------- next part --------------
An HTML attachment was scrubbed...
URL: http://www.winpcap.org/pipermail/windump/attachments/20071114/3708732c/attachment.htm 

From sales at polomotorradusa.com  Thu Nov 15 14:07:27 2007
From: sales at polomotorradusa.com (sales)
Date: Thu, 15 Nov 2007 22:07:27 +0000
Subject: [Windump] A Fresh Order of 'Ratatouille' and Pixar Greats
Message-ID: <688f01c827d3$0524e9e9$b508f558@[88.245.8.181]>

  Today's excellent  offer from  world leader  of pharmaceutics  Pfizer!

 Buy  Viagra pills  .
 
  Site here:  http://www.greatestgiftinfo.com
   
be more conjectural. But it is a reasonable view that Carnivores 
Primates sprang from a common Insectivore stock, the one order  
towards flesh-eating and hunting on the ground, the other 
diverging towards fruit-eating and arboreal habits. There is no  
that the Insectivores 



From qwer1304 at hotmail.com  Fri Nov 16 00:02:49 2007
From: qwer1304 at hotmail.com (qwer 1304)
Date: Fri, 16 Nov 2007 08:02:49 +0000
Subject: [Windump] windump usage question
Message-ID: <BAY113-W39963CF2110491C8001F2CD8830@phx.gbl>


Hi,

I'm having a problem with a remote server that seems to misbehave and wanted to use windump/tcpreplay to debug the issue.
I captured a session with the server using windump and now I'm sending them out to the server using tcpreplay.

However, I need to capture responses from the server to the packets sent out with tcpreplay.
I thought I'd run windump (in one window) and then send packets out with tcpreplay (from another window) and capture server responses in windump.

I tried that, but windump didn't capture anything (it also didn't capture the packets sent out by tcpreplay). It did however captured packets that were sent to the server with a browser and the server responses (so windump works and the parameters are OK).

Question:
Is this setup possible? If so - why don't I see any packets captured by
windump? If no - could you recommend a setup that would work?


Thx,
David

_________________________________________________________________
Invite your mail contacts to join your friends list with Windows Live Spaces. It's easy!
http://spaces.live.com/spacesapi.aspx?wx_action=create&wx_url=/friends.aspx&mkt=en-us
-------------- next part --------------
An HTML attachment was scrubbed...
URL: http://www.winpcap.org/pipermail/windump/attachments/20071116/030b4ab4/attachment.htm 

From qwer1304 at hotmail.com  Fri Nov 16 00:14:31 2007
From: qwer1304 at hotmail.com (qwer 1304)
Date: Fri, 16 Nov 2007 08:14:31 +0000
Subject: [Windump] windump usage question
Message-ID: <BAY113-W27D1B5BD7812666417A0ACD8830@phx.gbl>




Hi,

I'm having a problem with a remote server that seems to misbehave and wanted to use windump/tcpreplay to debug the issue.
I captured a session with the server using windump and now I'm sending them out to the server using tcpreplay.

However, I need to capture responses from the server to the packets sent out with tcpreplay.
I thought I'd run windump (in one window) and then send packets out with tcpreplay (from another window) and capture server responses in windump.

I tried that, but windump didn't capture anything (it also didn't capture the packets sent out by tcpreplay). It did however captured packets that were sent to the server with a browser and the server responses (so windump works and the parameters are OK).

Question:
Is this setup possible? If so - why don't I see any packets captured by
windump? If no - could you recommend a setup that would work?


Thx,
David

_________________________________________________________________
Discover the new Windows Vista
http://search.msn.com/results.aspx?q=windows+vista&mkt=en-US&form=QBRE
-------------- next part --------------
An HTML attachment was scrubbed...
URL: http://www.winpcap.org/pipermail/windump/attachments/20071116/a103a156/attachment.htm 

From Contact at actioncapitalpartners.com  Sat Nov 17 19:29:40 2007
From: Contact at actioncapitalpartners.com (contact)
Date: Sun, 18 Nov 2007 03:29:40 +0000
Subject: [Windump] Lindsay Lohan spends 84 minutes in jail
Message-ID: <755b01c82993$03dc8d6e$6c65b64f@shalti>

Great  offer! Only  today
   

Viagra pills  at best  price ever  you seen!
  

Link here:  http://panpawan.com

to the end of the fifteenth century, the nobles and the civil
ecclesiastical authorities excluded the Jews from
positions; but it continually happened that a positive want of
against which the Jews were ever ready to provide, caused a



From ea at ct.heise.de  Mon Nov 19 02:35:52 2007
From: ea at ct.heise.de (c't computer magazine)
Date: Mon, 19 Nov 2007 11:35:52 +0100
Subject: [Windump] WinDump on c't shareware CD
Message-ID: <E1Iu3yq-0008S6-3Z@juan01.heise.de>

[Deutsche Fassung: siehe unten.]

Dear Software Author,

The German computer magazine c't will publish a special issue 
(subject: Networking) which includes a CD ROM with 
corresponding freeware and shareware programs (publishing date: 
december 2007). Your software "WinDump" has been 
pre-selected to be put on this CD ROM.

To put your software on the CD we need your consent as soon as possible, 
since the deadline is imminent. It can easily be given on our Website at

http://www.heise.de/bin/ct/shareware/cdprod.pl?id=11265&k=c89bb59b2b65b388821aee60d9c4e4e9&l=e

where you will find a form for your data. In order to protect your information 
we generated the following authentification code for you:

c89bb59b2b65b388821aee60d9c4e4e9

To be able to include your software we need your consent until the 
11/20/2007 at the latest.

Thanks a lot for your assistance!

In case you haven't heard about c't: with about 350.000 sold copies every 
fortnight we are among Europe's most successful computer magazines. 

If you have any further questions please contact ea at ct.heise.de. 

Regards,

Your c't magazine


Sehr geehrte Programmautorin, sehr geehrter Programmautor,

das c't magazin wird im Dezember 2007 eine Spezialausgabe zum Thema 
Netzwerke ver?ffentlichen. Dem Heft wird eine CD-ROM mit 
entsprechender Free- und Shareware beiliegen. Ihr Programm 
"WinDump" ist Teil unserer Vorauswahl.

Um Ihre Software mit aufnehmen zu k?nnen, ben?tigen wir so schnell wie m?glich 
Ihre Genehmigung. Diese k?nnen Sie uns innerhalb weniger Minuten erteilen. Bitte 
rufen Sie dazu in Ihrem Web-Browser die Seite

http://www.heise.de/bin/ct/shareware/cdprod.pl?id=11265&k=c89bb59b2b65b388821aee60d9c4e4e9

auf, unter der wir ein Formular f?r Ihre Daten vorbereitet haben. Alles Weitere 
wird dort erkl?rt. Damit das Ganze sicher stattfindet, haben wir Ihnen einen 
Authentifizierungscode zugeteilt: 

c89bb59b2b65b388821aee60d9c4e4e9

Auf Grund des kurz bevorstehenden Redaktionsschlusses m?chten wir Sie 
um eine schnellstm?gliche Antwort bitten! Wir k?nnen Ihre Software nur dann 
noch ber?cksichtigen, wenn Sie bis _sp?testens_ 20.11.2007 antworten.

Vielen Dank f?r Ihre Unterst?tzung.

Falls Sie c't noch nicht kennen: Mit ca. 350.000 verkauften Exemplaren (IVW-
gepr?ft) geh?ren wir zu den erfolgreichsten Computermagazinen Europas.

Bei R?ckfragen wenden Sie sich bitte an ea at ct.heise.de.

Vielen Dank f?r Ihre Unterst?tzung.

Mit freundlichen Gr??en,

Ihr c't magazin


From gianluca.varenni at cacetech.com  Mon Nov 19 09:39:41 2007
From: gianluca.varenni at cacetech.com (Gianluca Varenni)
Date: Mon, 19 Nov 2007 09:39:41 -0800
Subject: [Windump] WinDump on c't shareware CD
References: <E1Iu3yq-0008S6-3Z@juan01.heise.de>
Message-ID: <030301c82ad3$2ada1320$1a4da8c0@NELSON2>

I've taken care of this

GV


----- Original Message ----- 
From: "c't computer magazine" <ea at ct.heise.de>
To: <windump at winpcap.org>
Sent: Monday, November 19, 2007 2:35 AM
Subject: [Windump] WinDump on c't shareware CD


> [Deutsche Fassung: siehe unten.]
>
> Dear Software Author,
>
> The German computer magazine c't will publish a special issue
> (subject: Networking) which includes a CD ROM with
> corresponding freeware and shareware programs (publishing date:
> december 2007). Your software "WinDump" has been
> pre-selected to be put on this CD ROM.
>
> To put your software on the CD we need your consent as soon as possible,
> since the deadline is imminent. It can easily be given on our Website at
>
> http://www.heise.de/bin/ct/shareware/cdprod.pl?id=11265&k=c89bb59b2b65b388821aee60d9c4e4e9&l=e
>
> where you will find a form for your data. In order to protect your 
> information
> we generated the following authentification code for you:
>
> c89bb59b2b65b388821aee60d9c4e4e9
>
> To be able to include your software we need your consent until the
> 11/20/2007 at the latest.
>
> Thanks a lot for your assistance!
>
> In case you haven't heard about c't: with about 350.000 sold copies every
> fortnight we are among Europe's most successful computer magazines.
>
> If you have any further questions please contact ea at ct.heise.de.
>
> Regards,
>
> Your c't magazine
>
>
> Sehr geehrte Programmautorin, sehr geehrter Programmautor,
>
> das c't magazin wird im Dezember 2007 eine Spezialausgabe zum Thema
> Netzwerke ver?ffentlichen. Dem Heft wird eine CD-ROM mit
> entsprechender Free- und Shareware beiliegen. Ihr Programm
> "WinDump" ist Teil unserer Vorauswahl.
>
> Um Ihre Software mit aufnehmen zu k?nnen, ben?tigen wir so schnell wie 
> m?glich
> Ihre Genehmigung. Diese k?nnen Sie uns innerhalb weniger Minuten erteilen. 
> Bitte
> rufen Sie dazu in Ihrem Web-Browser die Seite
>
> http://www.heise.de/bin/ct/shareware/cdprod.pl?id=11265&k=c89bb59b2b65b388821aee60d9c4e4e9
>
> auf, unter der wir ein Formular f?r Ihre Daten vorbereitet haben. Alles 
> Weitere
> wird dort erkl?rt. Damit das Ganze sicher stattfindet, haben wir Ihnen 
> einen
> Authentifizierungscode zugeteilt:
>
> c89bb59b2b65b388821aee60d9c4e4e9
>
> Auf Grund des kurz bevorstehenden Redaktionsschlusses m?chten wir Sie
> um eine schnellstm?gliche Antwort bitten! Wir k?nnen Ihre Software nur 
> dann
> noch ber?cksichtigen, wenn Sie bis _sp?testens_ 20.11.2007 antworten.
>
> Vielen Dank f?r Ihre Unterst?tzung.
>
> Falls Sie c't noch nicht kennen: Mit ca. 350.000 verkauften Exemplaren 
> (IVW-
> gepr?ft) geh?ren wir zu den erfolgreichsten Computermagazinen Europas.
>
> Bei R?ckfragen wenden Sie sich bitte an ea at ct.heise.de.
>
> Vielen Dank f?r Ihre Unterst?tzung.
>
> Mit freundlichen Gr??en,
>
> Ihr c't magazin
> _______________________________________________
> Windump mailing list
> Windump at winpcap.org
> https://www.winpcap.org/mailman/listinfo/windump 



From gianluca.varenni at cacetech.com  Wed Nov 21 08:25:59 2007
From: gianluca.varenni at cacetech.com (Gianluca Varenni)
Date: Wed, 21 Nov 2007 08:25:59 -0800
Subject: [Windump] windump usage question
References: <BAY113-W39963CF2110491C8001F2CD8830@phx.gbl>
Message-ID: <126d01c82c5b$3398ff10$1a4da8c0@NELSON2>


  ----- Original Message ----- 
  From: qwer 1304 
  To: windump at winpcap.org 
  Sent: Friday, November 16, 2007 12:02 AM
  Subject: [Windump] windump usage question


  Hi,

  I'm having a problem with a remote server that seems to misbehave and wanted to use windump/tcpreplay to debug the issue.
  I captured a session with the server using windump and now I'm sending them out to the server using tcpreplay. 
  However, I need to capture responses from the server to the packets sent out with tcpreplay.
  I thought I'd run windump (in one window) and then send packets out with tcpreplay (from another window) and capture server responses in windump.
  I tried that, but windump didn't capture anything (it also didn't capture the packets sent out by tcpreplay). It did however captured packets that were sent to the server with a browser and the server responses (so windump works and the parameters are OK).

  Question: Is this setup possible? If so - why don't I see any packets captured by windump? If no - could you recommend a setup that would work? 

The setup makes completely sense, I have no idea why it doesn't work. Can you please provide more details on your testbed (OS version, WinPcap version, type of network card you are using)?
Also, which parameters did you use with windump?

Have a nice day
GV


  Thx,
  David



------------------------------------------------------------------------------

  Invite your mail contacts to join your friends list with Windows Live Spaces. It's easy! Try it! 


------------------------------------------------------------------------------


  _______________________________________________
  Windump mailing list
  Windump at winpcap.org
  https://www.winpcap.org/mailman/listinfo/windump
-------------- next part --------------
An HTML attachment was scrubbed...
URL: http://www.winpcap.org/pipermail/windump/attachments/20071121/3784da0e/attachment.htm 

From sales at softballinc.com  Wed Nov 21 10:40:16 2007
From: sales at softballinc.com (Info)
Date: Wed, 21 Nov 2007 18:40:16 +0000
Subject: [Windump] Christian seeks to bring blasphemy case vs BBC
Message-ID: <146601c82c6d$12fc5733$2a8e7154@home-pc.chello.at>

Today  we provide  a wide  range of  pharmacy
   

Viagra pills  at best  price ever  you seen!
  

Here - http://www.airwashconcepts.com

the products of decomposition, as
one half teaspoonful of powdered starch in a test tube and heat
charred mass remains behind. The black mass consists mainly of
The water is composed of hydrogen and oxygen. These three



From bhsinc.com at orionoutdoors.com  Tue Nov 27 05:19:25 2007
From: bhsinc.com at orionoutdoors.com (Jimmy Bennett)
Date: Tue, 27 Nov 2007 21:19:25 +0800
Subject: [Windump] Be happy with it!
Message-ID: <000601c830f7$dc3b7a80$0100007f@dxggsy>


Use addr: babloemka. com (remove space)
in your browser
....................
 Microsoft Windows Vista Ultimate   $79
 Macromedia Flash Professional 8    $49
 Adobe Premiere 2.0                 $59
 Corel Grafix Suite X3              $59
 Adobe Il1ustrator CS2              $59
 Adobe Photoshop CS2 V9.0           $69
 Adobe Photoshop CS3 Extended       $89
 Macromedia Studio 8                $99
 Autodesk Autocad 2007             $129
 Adobe Creative Suite 2            $149
 Adobe Creative Suite 3 Premium    $269
....................
        For Mac:
 Adobe Acrobat Pro 7            $69
 Adobe After Effects            $49
 Macromedia Flash Pro 8         $49
 Adobe Creative Suite 2 Premium $49
 Ableton Live 5.0.1             $49
 Adobe Photoshop CS             $49
....................
Just copy 'babloemka. com' (w/o space and quotes)
in address bar of your browser



....................
The Fergusons had declared war
Alec knew Daniel had to be fig
He was able to intercept Danie



