From juanadedra at jacobsenholz.com  Sun Aug 19 15:49:59 2012
From: juanadedra at jacobsenholz.com (Nicholle Tanika)
Date: Sun, 19 Aug 2012 20:49:59 -0200
Subject: [Windump] csz4
Message-ID: <201208200547.24E3531A2DA8A94646F4D4DE@7o8ibmhgx7>

g

