From 7C86950F at elixirhosting.com  Thu Oct 11 07:28:20 2012
From: 7C86950F at elixirhosting.com (ADP.Message)
Date: Thu, 11 Oct 2012 09:28:20 -0500
Subject: [Windump] ADP Generated Message
Message-ID: <20121011092820.12C2561376983F409BCC.AC09D3@Equipo01>

An HTML attachment was scrubbed...
URL: <http://www.winpcap.org/pipermail/windump/attachments/20121011/7a26158c/attachment.html>

