C:\Users\pmoorhou\Desktop\pcap installs\WinDump.exe: listening on \Device\NPF_{7
8C44417-181E-4743-92B8-F0BD29D2741B}
09:50:33.427696 00:01:fe:80:00:00 (oui Unknown) > 60:00:00:00:00:24 (oui Unknown
) Null Information, send seq 10, rcv seq 59, Flags [Command], length 62
09:50:33.486478 00:01:fe:80:00:00 (oui Unknown) > 60:00:00:00:00:24 (oui Unknown
) Null Information, send seq 10, rcv seq 59, Flags [Command], length 62
09:50:33.679927 00:01:fe:80:00:00 (oui Unknown) > 60:00:00:00:00:24 (oui Unknown
) Null Information, send seq 10, rcv seq 59, Flags [Command], length 62
09:50:34.001191 00:01:fe:80:00:00 (oui Unknown) > 60:00:00:00:00:24 (oui Unknown
) Null Information, send seq 10, rcv seq 59, Flags [Command], length 62
09:50:34.399009 00:01:fe:80:00:00 (oui Unknown) > 60:00:00:00:00:38 (oui Unknown
) Null Information, send seq 0, rcv seq 0, Flags [Command], length 82
09:52:42.307457 3a:ff:fe:80:00:00 (oui Unknown) > 60:00:00:00:00:18 (oui Unknown
) Null Information, send seq 24, rcv seq 109, Flags [Command], length 50
09:52:42.307557 00:01:fe:80:00:00 (oui Unknown) > 60:00:00:00:00:4c (oui Unknown
) Null Information, send seq 24, rcv seq 109, Flags [Command], length 102
09:52:42.386959 3a:ff:fe:80:00:00 (oui Unknown) > 60:00:00:00:00:70 (oui Unknown
) Null Information, send seq 64, rcv seq 0, Flags [Command], length 138
09:52:42.745354 11:01:fe:80:00:00 (oui Unknown) > 60:00:00:00:00:63 (oui Unknown
) Null Information, send seq 24, rcv seq 109, Flags [Command], length 125
09:52:42.822104 00:01:fe:80:00:00 (oui Unknown) > 60:00:00:00:00:38 (oui Unknown
) Null Information, send seq 24, rcv seq 109, Flags [Command], length 82
09:52:42.824934 11:01:fe:80:00:00 (oui Unknown) > 60:00:00:00:00:7d (oui Unknown
) Null Information, send seq 24, rcv seq 109, Flags [Command], length 151
09:52:42.867040 11:01:fe:80:00:00 (oui Unknown) > 60:00:00:00:00:8a (oui Unknown
) Null Information, send seq 24, rcv seq 109, Flags [Command], length 164
09:52:43.331795 00:01:fe:80:00:00 (oui Unknown) > 60:00:00:00:00:24 (oui Unknown
) Null Information, send seq 24, rcv seq 109, Flags [Command], length 62
09:52:43.337083 00:01:fe:80:00:00 (oui Unknown) > 60:00:00:00:00:24 (oui Unknown
) Null Information, send seq 24, rcv seq 109, Flags [Command], length 62
09:52:43.380239 11:01:fe:80:00:00 (oui Unknown) > 60:00:00:00:00:25 (oui Unknown
) Null Information, send seq 24, rcv seq 109, Flags [Command], length 63
09:52:43.485217 11:01:fe:80:00:00 (oui Unknown) > 60:00:00:00:00:25 (oui Unknown
) Null Information, send seq 24, rcv seq 109, Flags [Command], length 63
09:52:44.219757 11:01:fe:80:00:00 (oui Unknown) > 60:00:00:00:03:e9 (oui Unknown
) Null Information, send seq 24, rcv seq 109, Flags [Command], length 1027
09:52:44.338334 11:01:fe:80:00:00 (oui Unknown) > 60:00:00:00:03:e9 (oui Unknown
) Null Information, send seq 24, rcv seq 109, Flags [Command], length 1027
09:52:46.116874 11:01:fe:80:00:00 (oui Unknown) > 60:00:00:00:00:7d (oui Unknown
) Null Information, send seq 24, rcv seq 109, Flags [Command], length 151
09:52:46.156495 11:01:fe:80:00:00 (oui Unknown) > 60:00:00:00:00:8a (oui Unknown
) Null Information, send seq 24, rcv seq 109, Flags [Command], length 164
09:52:46.425688 3a:ff:fe:80:00:00 (oui Unknown) > 60:00:00:00:00:18 (oui Unknown
) Null Information, send seq 24, rcv seq 109, Flags [Command], length 50
09:52:46.428448 3a:ff:fe:80:00:00 (oui Unknown) > 60:00:00:00:00:70 (oui Unknown
) Null Information, send seq 64, rcv seq 0, Flags [Command], length 138
09:52:50.544015 3a:ff:fe:80:00:00 (oui Unknown) > 60:00:00:00:00:18 (oui Unknown
) Null Information, send seq 24, rcv seq 109, Flags [Command], length 50
09:52:50.544252 3a:ff:fe:80:00:00 (oui Unknown) > 60:00:00:00:00:70 (oui Unknown
) Null Information, send seq 64, rcv seq 0, Flags [Command], length 138
09:53:00.263728 00:01:fe:80:00:00 (oui Unknown) > 60:00:00:00:00:24 (oui Unknown
) Null Information, send seq 24, rcv seq 109, Flags [Command], length 62
09:53:00.325342 00:01:fe:80:00:00 (oui Unknown) > 60:00:00:00:00:24 (oui Unknown
) Null Information, send seq 24, rcv seq 109, Flags [Command], length 62
09:53:00.381731 00:01:fe:80:00:00 (oui Unknown) > 60:00:00:00:00:24 (oui Unknown
) Null Information, send seq 24, rcv seq 109, Flags [Command], length 62
09:53:00.430168 11:01:fe:80:00:00 (oui Unknown) > 60:00:00:00:03:e9 (oui Unknown
) Null Information, send seq 24, rcv seq 109, Flags [Command], length 1027
09:53:00.613757 11:01:fe:80:00:00 (oui Unknown) > 60:00:00:00:03:e9 (oui Unknown
) Null Information, send seq 24, rcv seq 109, Flags [Command], length 1027
09:53:00.778809 00:01:fe:80:00:00 (oui Unknown) > 60:00:00:00:00:38 (oui Unknown
) Null Information, send seq 0, rcv seq 0, Flags [Command], length 82
09:53:00.840115 3a:ff:fe:80:00:00 (oui Unknown) > 60:00:00:00:00:18 (oui Unknown
) Null Information, send seq 0, rcv seq 0, Flags [Command], length 50
09:53:00.840176 00:01:fe:80:00:00 (oui Unknown) > 60:00:00:00:00:4c (oui Unknown
) Null Information, send seq 0, rcv seq 0, Flags [Command], length 102
09:53:00.877319 11:01:fe:80:00:00 (oui Unknown) > 60:00:00:00:03:e9 (oui Unknown
) Null Information, send seq 0, rcv seq 0, Flags [Command], length 1027
09:53:24.272404 11:01:fe:80:00:00 (oui Unknown) > 60:00:00:00:00:63 (oui Unknown
) Null Information, send seq 22, rcv seq 106, Flags [Command], length 125
09:53:24.521011 3a:ff:fe:80:00:00 (oui Unknown) > 60:00:00:00:00:18 (oui Unknown
) Null Information, send seq 22, rcv seq 106, Flags [Command], length 50
09:53:24.521111 00:01:fe:80:00:00 (oui Unknown) > 60:00:00:00:00:4c (oui Unknown
) Null Information, send seq 22, rcv seq 106, Flags [Command], length 102
09:53:24.522847 3a:ff:fe:80:00:00 (oui Unknown) > 60:00:00:00:00:70 (oui Unknown
) Null Information, send seq 64, rcv seq 0, Flags [Command], length 138
09:53:24.821725 11:01:fe:80:00:00 (oui Unknown) > 60:00:00:00:00:7d (oui Unknown
) Null Information, send seq 22, rcv seq 106, Flags [Command], length 151
09:53:24.854169 11:01:fe:80:00:00 (oui Unknown) > 60:00:00:00:00:8a (oui Unknown
) Null Information, send seq 22, rcv seq 106, Flags [Command], length 164
09:53:25.036003 00:01:fe:80:00:00 (oui Unknown) > 60:00:00:00:00:38 (oui Unknown
) Null Information, send seq 22, rcv seq 106, Flags [Command], length 82
09:53:25.064653 00:01:fe:80:00:00 (oui Unknown) > 60:00:00:00:00:24 (oui Unknown
) Null Information, send seq 22, rcv seq 106, Flags [Command], length 62
09:53:25.109820 11:01:fe:80:00:00 (oui Unknown) > 60:00:00:00:00:25 (oui Unknown
) Null Information, send seq 22, rcv seq 106, Flags [Command], length 63
09:53:25.209460 11:01:fe:80:00:00 (oui Unknown) > 60:00:00:00:00:25 (oui Unknown
) Null Information, send seq 22, rcv seq 106, Flags [Command], length 63
09:53:25.550807 00:01:fe:80:00:00 (oui Unknown) > 60:00:00:00:00:24 (oui Unknown
) Null Information, send seq 22, rcv seq 106, Flags [Command], length 62
09:53:27.972393 11:01:fe:80:00:00 (oui Unknown) > 60:00:00:00:00:7d (oui Unknown
) Null Information, send seq 22, rcv seq 106, Flags [Command], length 151
09:53:28.023829 11:01:fe:80:00:00 (oui Unknown) > 60:00:00:00:00:8a (oui Unknown
) Null Information, send seq 22, rcv seq 106, Flags [Command], length 164
09:53:28.497028 11:01:fe:80:00:00 (oui Unknown) > 60:00:00:00:03:e9 (oui Unknown
) Null Information, send seq 22, rcv seq 106, Flags [Command], length 1027
09:53:28.639350 3a:ff:fe:80:00:00 (oui Unknown) > 60:00:00:00:00:18 (oui Unknown
) Null Information, send seq 22, rcv seq 106, Flags [Command], length 50
09:53:28.639816 3a:ff:fe:80:00:00 (oui Unknown) > 60:00:00:00:00:70 (oui Unknown
) Null Information, send seq 64, rcv seq 0, Flags [Command], length 138
09:53:28.657432 11:01:fe:80:00:00 (oui Unknown) > 60:00:00:00:03:e9 (oui Unknown
) Null Information, send seq 22, rcv seq 106, Flags [Command], length 1027
09:53:32.757681 3a:ff:fe:80:00:00 (oui Unknown) > 60:00:00:00:00:18 (oui Unknown
) Null Information, send seq 22, rcv seq 106, Flags [Command], length 50
09:53:32.757835 3a:ff:fe:80:00:00 (oui Unknown) > 60:00:00:00:00:70 (oui Unknown
) Null Information, send seq 64, rcv seq 0, Flags [Command], length 138
09:54:52.910642 00:01:fe:80:00:00 (oui Unknown) > 60:00:00:00:00:24 (oui Unknown
) Null Information, send seq 22, rcv seq 106, Flags [Command], length 62
09:54:53.017639 00:01:fe:80:00:00 (oui Unknown) > 60:00:00:00:00:24 (oui Unknown
) Null Information, send seq 22, rcv seq 106, Flags [Command], length 62
09:54:53.294121 00:01:fe:80:00:00 (oui Unknown) > 60:00:00:00:00:24 (oui Unknown
) Null Information, send seq 22, rcv seq 106, Flags [Command], length 62
09:54:53.505951 11:01:fe:80:00:00 (oui Unknown) > 60:00:00:00:03:e9 (oui Unknown
) Null Information, send seq 22, rcv seq 106, Flags [Command], length 1027
09:54:53.664395 00:01:fe:80:00:00 (oui Unknown) > 60:00:00:00:00:38 (oui Unknown
) Null Information, send seq 0, rcv seq 0, Flags [Command], length 82
09:55:47.348370 3a:ff:fe:80:00:00 (oui Unknown) > 60:00:00:00:00:18 (oui Unknown
) Null Information, send seq 26, rcv seq 87, Flags [Poll], length 50
09:55:47.348475 00:01:fe:80:00:00 (oui Unknown) > 60:00:00:00:00:4c (oui Unknown
) Null Information, send seq 26, rcv seq 87, Flags [Poll], length 102
09:55:47.369415 3a:ff:fe:80:00:00 (oui Unknown) > 60:00:00:00:00:70 (oui Unknown
) Null Information, send seq 64, rcv seq 0, Flags [Command], length 138
09:55:47.426610 11:01:fe:80:00:00 (oui Unknown) > 60:00:00:00:00:63 (oui Unknown
) Null Information, send seq 26, rcv seq 87, Flags [Poll], length 125
09:55:47.863039 00:01:fe:80:00:00 (oui Unknown) > 60:00:00:00:00:38 (oui Unknown
) Null Information, send seq 26, rcv seq 87, Flags [Poll], length 82
09:55:48.097425 11:01:fe:80:00:00 (oui Unknown) > 60:00:00:00:00:7d (oui Unknown
) Null Information, send seq 26, rcv seq 87, Flags [Poll], length 151
09:55:48.130801 11:01:fe:80:00:00 (oui Unknown) > 60:00:00:00:00:8a (oui Unknown
) Null Information, send seq 26, rcv seq 87, Flags [Poll], length 164
09:55:48.482746 00:01:fe:80:00:00 (oui Unknown) > 60:00:00:00:00:24 (oui Unknown
) Null Information, send seq 26, rcv seq 87, Flags [Poll], length 62
09:55:48.532989 11:01:fe:80:00:00 (oui Unknown) > 60:00:00:00:00:25 (oui Unknown
) Null Information, send seq 26, rcv seq 87, Flags [Poll], length 63
09:55:48.628858 11:01:fe:80:00:00 (oui Unknown) > 60:00:00:00:00:25 (oui Unknown
) Null Information, send seq 26, rcv seq 87, Flags [Poll], length 63
09:55:48.892794 00:01:fe:80:00:00 (oui Unknown) > 60:00:00:00:00:24 (oui Unknown
) Null Information, send seq 26, rcv seq 87, Flags [Poll], length 62
09:55:49.578332 11:01:fe:80:00:00 (oui Unknown) > 60:00:00:00:03:e9 (oui Unknown
) Null Information, send seq 26, rcv seq 87, Flags [Poll], length 1027
09:55:49.799483 11:01:fe:80:00:00 (oui Unknown) > 60:00:00:00:03:e9 (oui Unknown
) Null Information, send seq 26, rcv seq 87, Flags [Poll], length 1027
09:55:51.288862 11:01:fe:80:00:00 (oui Unknown) > 60:00:00:00:00:7d (oui Unknown
) Null Information, send seq 26, rcv seq 87, Flags [Poll], length 151
09:55:51.327964 11:01:fe:80:00:00 (oui Unknown) > 60:00:00:00:00:8a (oui Unknown
) Null Information, send seq 26, rcv seq 87, Flags [Poll], length 164
09:55:51.466598 3a:ff:fe:80:00:00 (oui Unknown) > 60:00:00:00:00:18 (oui Unknown
) Null Information, send seq 26, rcv seq 87, Flags [Poll], length 50
09:55:51.468684 3a:ff:fe:80:00:00 (oui Unknown) > 60:00:00:00:00:70 (oui Unknown
) Null Information, send seq 64, rcv seq 0, Flags [Command], length 138
09:55:55.586693 3a:ff:fe:80:00:00 (oui Unknown) > 60:00:00:00:00:18 (oui Unknown
) Null Information, send seq 26, rcv seq 87, Flags [Poll], length 50
09:55:55.586936 3a:ff:fe:80:00:00 (oui Unknown) > 60:00:00:00:00:70 (oui Unknown
) Null Information, send seq 64, rcv seq 0, Flags [Command], length 138
09:56:33.451975 00:01:fe:80:00:00 (oui Unknown) > 60:00:00:00:00:24 (oui Unknown
) Null Information, send seq 26, rcv seq 87, Flags [Poll], length 62
09:56:33.651295 00:01:fe:80:00:00 (oui Unknown) > 60:00:00:00:00:24 (oui Unknown
) Null Information, send seq 26, rcv seq 87, Flags [Poll], length 62
09:56:33.718326 00:01:fe:80:00:00 (oui Unknown) > 60:00:00:00:00:24 (oui Unknown
) Null Information, send seq 26, rcv seq 87, Flags [Poll], length 62
09:56:33.992718 11:01:fe:80:00:00 (oui Unknown) > 60:00:00:00:03:e9 (oui Unknown
) Null Information, send seq 26, rcv seq 87, Flags [Poll], length 1027
09:56:34.056062 00:01:fe:80:00:00 (oui Unknown) > 60:00:00:00:00:38 (oui Unknown
) Null Information, send seq 0, rcv seq 0, Flags [Command], length 82
09:56:53.151458 3a:ff:fe:80:00:00 (oui Unknown) > 60:00:00:00:00:18 (oui Unknown
) Null Information, send seq 8, rcv seq 16, Flags [Poll], length 50
09:56:53.151570 00:01:fe:80:00:00 (oui Unknown) > 60:00:00:00:00:4c (oui Unknown
) Null Information, send seq 8, rcv seq 16, Flags [Poll], length 102
09:56:53.193591 3a:ff:fe:80:00:00 (oui Unknown) > 60:00:00:00:00:70 (oui Unknown
) Null Information, send seq 64, rcv seq 0, Flags [Command], length 138
09:56:53.656319 00:01:fe:80:00:00 (oui Unknown) > 60:00:00:00:00:38 (oui Unknown
) Null Information, send seq 8, rcv seq 16, Flags [Poll], length 82
09:56:53.938683 11:01:fe:80:00:00 (oui Unknown) > 60:00:00:00:00:7d (oui Unknown
) Null Information, send seq 8, rcv seq 16, Flags [Poll], length 151
09:56:53.963110 11:01:fe:80:00:00 (oui Unknown) > 60:00:00:00:00:8a (oui Unknown
) Null Information, send seq 8, rcv seq 16, Flags [Poll], length 164
09:56:54.408492 00:01:fe:80:00:00 (oui Unknown) > 60:00:00:00:00:24 (oui Unknown
) Null Information, send seq 8, rcv seq 16, Flags [Poll], length 62
09:56:54.478439 11:01:fe:80:00:00 (oui Unknown) > 60:00:00:00:00:25 (oui Unknown
) Null Information, send seq 8, rcv seq 16, Flags [Poll], length 63
09:56:54.578078 11:01:fe:80:00:00 (oui Unknown) > 60:00:00:00:00:25 (oui Unknown
) Null Information, send seq 8, rcv seq 16, Flags [Poll], length 63
09:56:54.656651 00:01:fe:80:00:00 (oui Unknown) > 60:00:00:00:00:24 (oui Unknown
) Null Information, send seq 8, rcv seq 16, Flags [Poll], length 62
09:56:57.073578 11:01:fe:80:00:00 (oui Unknown) > 60:00:00:00:00:7d (oui Unknown
) Null Information, send seq 8, rcv seq 16, Flags [Poll], length 151
09:56:57.106669 11:01:fe:80:00:00 (oui Unknown) > 60:00:00:00:00:8a (oui Unknown
) Null Information, send seq 8, rcv seq 16, Flags [Poll], length 164
09:56:57.156321 3a:ff:fe:80:00:00 (oui Unknown) > 60:00:00:00:00:18 (oui Unknown
) Null Information, send seq 8, rcv seq 16, Flags [Poll], length 50
09:56:57.222019 3a:ff:fe:80:00:00 (oui Unknown) > 60:00:00:00:00:70 (oui Unknown
) Null Information, send seq 64, rcv seq 0, Flags [Command], length 138
09:56:57.868226 11:01:fe:80:00:00 (oui Unknown) > 60:00:00:00:03:e9 (oui Unknown
) Null Information, send seq 8, rcv seq 16, Flags [Poll], length 1027
09:56:58.095476 11:01:fe:80:00:00 (oui Unknown) > 60:00:00:00:03:e9 (oui Unknown
) Null Information, send seq 8, rcv seq 16, Flags [Poll], length 1027
09:57:01.156292 3a:ff:fe:80:00:00 (oui Unknown) > 60:00:00:00:00:18 (oui Unknown
) Null Information, send seq 8, rcv seq 16, Flags [Poll], length 50
09:57:01.156511 3a:ff:fe:80:00:00 (oui Unknown) > 60:00:00:00:00:70 (oui Unknown
) Null Information, send seq 64, rcv seq 0, Flags [Command], length 138
